Schmidt_Emily_TP4
…
## # A tibble: 1  10
##   .model        .type       ME  RMSE   MAE   MPE  MAPE  MASE RMSSE   ACF1
##   <chr>         <chr>    <dbl> <dbl> <dbl> <dbl> <dbl> <dbl> <dbl>  <dbl>
## 1 Unknown_Model Training  7.18  33.6  27.8 0.473  15.6 0.702 0.712 -0.212

## # A dable: 31 x 5 [1]
## # Key:     .model [1]
## # :        Paperback = lag(level, 1) + remainder
##    .model         Time Paperback level remainder
##    <chr>         <dbl>     <int> <dbl>     <dbl>
##  1 Unknown_Model     0        NA  171.     NA   
##  2 Unknown_Model     1       199  176.     28.2 
##  3 Unknown_Model     2       172  175.     -3.59
##  4 Unknown_Model     3       111  164.    -64.0 
##  5 Unknown_Model     4       209  172.     44.8 
##  6 Unknown_Model     5       161  170.    -10.8 
##  7 Unknown_Model     6       119  161.    -50.9 
##  8 Unknown_Model     7       195  167.     33.6 
##  9 Unknown_Model     8       195  172.     28.0 
## 10 Unknown_Model     9       131  165.    -40.7 
## #  21 more rows
…
