Schmidt_Emily_TP7
…
## [1] "tbl_ts"     "tbl_df"     "tbl"        "data.frame"

## # A tsibble: 6 x 9 [1Y]
## # Key:       Country [1]
##   Country     Code   Year         GDP Growth   CPI Imports Exports Population
##   <fct>       <fct> <dbl>       <dbl>  <dbl> <dbl>   <dbl>   <dbl>      <dbl>
## 1 Afghanistan AFG    1960  537777811.     NA    NA    7.02    4.13    8996351
## 2 Afghanistan AFG    1961  548888896.     NA    NA    8.10    4.45    9166764
## 3 Afghanistan AFG    1962  546666678.     NA    NA    9.35    4.88    9345868
## 4 Afghanistan AFG    1963  751111191.     NA    NA   16.9     9.17    9533954
## 5 Afghanistan AFG    1964  800000044.     NA    NA   18.1     8.89    9731361
## 6 Afghanistan AFG    1965 1006666638.     NA    NA   21.4    11.3     9938414

## # A tsibble: 15,150 x 9 [1Y]
## # Key:       Country [263]
##    Country     Code   Year         GDP Growth   CPI Imports Exports Population
##    <fct>       <fct> <dbl>       <dbl>  <dbl> <dbl>   <dbl>   <dbl>      <dbl>
##  1 Afghanistan AFG    1960  537777811.     NA    NA    7.02    4.13    8996351
##  2 Afghanistan AFG    1961  548888896.     NA    NA    8.10    4.45    9166764
##  3 Afghanistan AFG    1962  546666678.     NA    NA    9.35    4.88    9345868
##  4 Afghanistan AFG    1963  751111191.     NA    NA   16.9     9.17    9533954
##  5 Afghanistan AFG    1964  800000044.     NA    NA   18.1     8.89    9731361
##  6 Afghanistan AFG    1965 1006666638.     NA    NA   21.4    11.3     9938414
##  7 Afghanistan AFG    1966 1399999967.     NA    NA   18.6     8.57   10152331
##  8 Afghanistan AFG    1967 1673333418.     NA    NA   14.2     6.77   10372630
##  9 Afghanistan AFG    1968 1373333367.     NA    NA   15.2     8.90   10604346
## 10 Afghanistan AFG    1969 1408888922.     NA    NA   15.0    10.1    10854428
## #  15,140 more rows
…
## [1] "Australian Capital Territory" "New South Wales"             
## [3] "Northern Territory"           "Queensland"                  
## [5] "South Australia"              "Tasmania"                    
## [7] "Victoria"                     "Western Australia"

## [1] 0

## # A tsibble: 74 x 2 [1Q]
##       Date Takings
##      <qtr>   <dbl>
##  1 1998 Q1    28.7
##  2 1998 Q2    19.0
##  3 1998 Q3    16.1
##  4 1998 Q4    25.9
##  5 1999 Q1    28.4
##  6 1999 Q2    20.1
##  7 1999 Q3    17.3
##  8 1999 Q4    24.3
##  9 2000 Q1    30.0
## 10 2000 Q2    21.7
## #  64 more rows
…
