Schmidt_Emily_TP1
…
##   Retail.trade.clothing
## 1                  6938
## 2                  7524
## 3                  8475
## 4                  9401
## 5                  9558
## 6                  9182

## 'data.frame':    302 obs. of  1 variable:
##  $ Retail.trade.clothing: int  6938 7524 8475 9401 9558 9182 9103 10513 9573 10254 ...

## [1] 302   1

## # A tsibble: 302 x 2 [1M]
##       Month Sales
##       <mth> <int>
##  1 1992 Jan  6938
##  2 1992 Feb  7524
##  3 1992 Mar  8475
##  4 1992 Apr  9401
##  5 1992 May  9558
##  6 1992 Jun  9182
##  7 1992 Jul  9103
##  8 1992 Aug 10513
##  9 1992 Sep  9573
## 10 1992 Oct 10254
## #  292 more rows
…
6. Use the same object constructed before to find
the trend coefficients. What has been the relative increase from the
last to the first level?

## # A tsibble: 290 x 2 [1M]
##       Month  trend
##       <mth>  <dbl>
##  1 1992 Jul 10032.
##  2 1992 Aug 10056.
##  3 1992 Sep 10068.
##  4 1992 Oct 10099.
##  5 1992 Nov 10140.
##  6 1992 Dec 10180.
##  7 1993 Jan 10227.
##  8 1993 Feb 10261.
##  9 1993 Mar 10284 
## 10 1993 Apr 10306.
## #  280 more rows
…
